<?xml version="1.0" encoding="UTF-8"?>
<svg width="22px" height="22px" viewBox="0 0 22 22" version="1.1" xmlns="http://www.w3.org/2000/svg" xmlns:xlink="http://www.w3.org/1999/xlink">
    <!-- Generator: Sketch 59.1 (86144) - https://sketch.com -->
    <title>icon-phone</title>
    <desc>Created with Sketch.</desc>
    <defs>
        <path d="M19.3881279,12.9589041 C18.4840183,12.8584475 17.5799087,12.6575342 16.7762557,12.3561644 C15.6712329,11.9543379 14.4657534,12.2557078 13.5616438,13.0593607 L12.8584475,13.7625571 C11.0502283,12.5570776 9.44292237,11.0502283 8.23744292,9.14155251 L8.94063927,8.43835616 C9.74429224,7.6347032 10.0456621,6.32876712 9.64383562,5.22374429 C9.34246575,4.42009132 9.14155251,3.51598174 9.04109589,2.61187215 C8.84018265,1.10502283 7.53424658,0 6.02739726,0 C6.02739726,0 6.02739726,0 6.02739726,0 L3.01369863,0 C2.91324201,0 2.81278539,0 2.71232877,0 C1.9086758,0.100456621 1.20547945,0.502283105 0.703196347,1.10502283 C0.200913242,1.70776256 0,2.51141553 0,3.31506849 C0.301369863,6.52968037 1.50684932,9.74429224 3.21461187,12.456621 C4.82191781,14.9680365 7.03196347,17.1780822 9.543379,18.7853881 C12.2557078,20.5936073 15.4703196,21.6986301 18.6849315,22 C18.7853881,22 18.8858447,22 18.9863014,22 C18.9863014,22 18.9863014,22 18.9863014,22 C19.7899543,22 20.5936073,21.6986301 21.0958904,21.0958904 C21.5981735,20.4931507 22,19.7899543 22,18.9863014 L22,15.9726027 C22,14.4657534 20.8949772,13.1598174 19.3881279,12.9589041 Z M19.9908676,15.9726027 L19.9908676,18.9863014 C19.9908676,19.2876712 19.890411,19.4885845 19.6894977,19.6894977 C19.4885845,19.890411 19.2876712,19.9908676 18.8858447,19.9908676 C15.9726027,19.6894977 13.1598174,18.6849315 10.6484018,17.0776256 C8.33789954,15.6712329 6.42922374,13.6621005 4.92237443,11.3515982 C3.31506849,8.84018265 2.31050228,6.02739726 2.00913242,3.11415525 C2.00913242,2.81278539 2.10958904,2.61187215 2.21004566,2.4109589 C2.4109589,2.21004566 2.71232877,2.00913242 3.01369863,2.00913242 L6.02739726,2.00913242 C6.02739726,2.00913242 6.02739726,2.00913242 6.02739726,2.00913242 C6.52968037,2.00913242 6.93150685,2.4109589 7.03196347,2.91324201 C7.13242009,3.91780822 7.43378995,5.02283105 7.83561644,5.92694064 C7.93607306,6.32876712 7.83561644,6.73059361 7.6347032,7.03196347 L6.32876712,8.23744292 C6.02739726,8.53881279 5.92694064,9.04109589 6.12785388,9.44292237 C7.6347032,12.1552511 9.84474886,14.3652968 12.5570776,15.8721461 C12.9589041,16.0730594 13.4611872,16.0730594 13.7625571,15.6712329 L15.0684932,14.3652968 C15.369863,14.0639269 15.7716895,13.9634703 16.173516,14.1643836 C17.1780822,14.56621 18.1826484,14.7671233 19.1872146,14.9680365 C19.5890411,15.0684932 19.9908676,15.4703196 19.9908676,15.9726027 C19.9908676,15.9726027 19.9908676,15.9726027 19.9908676,15.9726027 Z" id="path-1"></path>
    </defs>
    <g id="Cynch-Driver-App-UI" stroke="none" stroke-width="1" fill="none" fill-rule="evenodd">
        <g id="Cynch-Driver-App-UI-Elements" transform="translate(-611.000000, -1428.000000)">
            <g id="Group" transform="translate(597.000000, 1413.000000)">
                <g id="icon-phone" transform="translate(14.000000, 15.000000)">
                    <mask id="mask-2" fill="white">
                        <use xlink:href="#path-1"></use>
                    </mask>
                    <use id="Mask" fill="#FFFFFF" xlink:href="#path-1"></use>
                </g>
            </g>
        </g>
    </g>
</svg>