<?xml version="1.0" encoding="UTF-8"?>
<svg width="31px" height="38px" viewBox="0 0 31 38" version="1.1" xmlns="http://www.w3.org/2000/svg" xmlns:xlink="http://www.w3.org/1999/xlink">
    <!-- Generator: Sketch 59.1 (86144) - https://sketch.com -->
    <title>icon-tank-cynch</title>
    <desc>Created with Sketch.</desc>
    <defs>
        <linearGradient x1="-0.0452052974%" y1="50.0050174%" x2="100.023805%" y2="50.0050174%" id="linearGradient-1">
            <stop stop-color="#FAAF40" offset="0%"></stop>
            <stop stop-color="#EE4036" offset="100%"></stop>
        </linearGradient>
    </defs>
    <g id="Cynch-Driver-App-UI" stroke="none" stroke-width="1" fill="none" fill-rule="evenodd">
        <g id="Cynch-Driver-App-UI-Elements" transform="translate(-46.000000, -1575.000000)">
            <g id="App-/-BU-Icon-/-Cynch-/-Alt" transform="translate(42.932203, 1575.000000)">
                <g id="Group-5" transform="translate(4.000000, 0.000000)">
                    <path d="M22.8124658,3.55271368e-15 C23.3927466,3.55271368e-15 23.8631571,0.466789019 23.8631571,1.04260245 C23.8631571,1.61841589 23.3927466,2.08520491 22.8124658,2.08520491 L20.1583871,2.08503114 L20.1583871,5.49005491 L21.8864329,5.49015976 C26.0457586,5.49015976 29.4193548,8.82365923 29.4193548,12.9379486 L29.4193548,27.1208613 C29.4193548,30.8825645 26.5992031,33.9915677 22.9368298,34.4968117 L22.9371241,36.4998842 C22.9371241,37.2916608 22.3187198,37.9387049 21.5362629,37.9958912 L21.4234164,38 L7.99593845,38 C7.19888775,38 6.54425387,37.3889457 6.4863885,36.6119625 L6.48223073,36.4998842 L6.48252502,34.4968117 C2.82015176,33.9915677 0,30.8825645 0,27.1208613 L0,12.9379486 C0,8.82365923 3.37359624,5.49015976 7.53292197,5.49015976 L9.26003379,5.49005491 L9.26003379,2.08503114 L6.60688901,2.08520491 C6.02660826,2.08520491 5.55619777,1.61841589 5.55619777,1.04260245 C5.55619777,0.466789019 6.02660826,3.55271368e-15 6.60688901,3.55271368e-15 L22.8124658,3.55271368e-15 Z" id="Path" fill="#004D75"></path>
                    <g id="Brand-/-Logo-/-Icon-/-White" transform="translate(6.741935, 8.580645)">
                        <g id="logo">
                            <path d="M11.3826032,22.0700395 C11.4158166,22.0647563 11.4477457,22.0851038 11.4569848,22.1174407 C11.4662239,22.1497777 11.449864,22.1839221 11.4188728,22.196983 C9.77328737,23.0652127 7.87122416,23.3155688 6.05701988,22.9027286 C2.39532281,22.0215028 -0.134967445,18.6777242 0.01208986,14.9143536 C0.0680054627,13.6963002 0.565200957,12.655061 0.816065552,11.4868783 C1.06942904,10.2789361 1.00116218,9.02563988 0.618094094,7.85236409 C0.607736455,7.82259937 0.617782505,7.78955225 0.642953371,7.77058789 C0.668124238,7.75162354 0.702660334,7.75108138 0.728414067,7.76924631 C1.50414869,8.32441502 2.23024849,8.94584724 2.89854394,9.62655105 C2.97005906,9.70336779 3.07630454,9.73758593 3.17920799,9.71694363 C3.28211143,9.69630132 3.36693988,9.62375398 3.4032956,9.52529848 C4.49363341,6.51778895 4.69715572,3.26038294 3.98965381,0.140544623 C3.98157589,0.0998524058 3.99577332,0.0579371191 4.02691762,0.0305301422 C4.05806191,0.0031231653 4.10144212,-0.00562987283 4.14077706,0.00755616252 C7.95186224,1.62774894 11.1427343,4.42770739 13.2444417,7.99593118 C13.2911912,8.06694873 13.2881981,8.15969947 13.2369671,8.22755516 C13.1857361,8.29541084 13.097351,8.32369069 13.0162456,8.29817768 C12.3891529,8.12838941 11.7421142,8.04350688 11.0924466,8.04580185 C8.94196273,8.04580185 7.14964098,8.73039018 5.76384077,10.0799208 C4.39280778,11.3661194 3.62511948,13.1690902 3.64811527,15.0488533 C3.64068593,15.9540528 3.81222277,16.8517965 4.15286692,17.6904877 C4.52986308,18.5645413 5.07520312,19.3558492 5.75779584,20.019297 C6.67151104,20.952065 7.82694265,21.6119379 9.09459721,21.9249612 C9.84355999,22.102454 10.61722,22.1515104 11.3826032,22.0700395 L11.3826032,22.0700395 Z" id="Path" fill="url(#linearGradient-1)"></path>
                            <path d="M7.1783544,11.3236652 C8.26442682,10.2678174 9.67491049,9.73989349 11.4098054,9.73989349 C12.1553536,9.72663188 12.8951658,9.87243052 13.5799353,10.1675723 C14.2681087,10.48764 14.9035551,10.9105914 15.4644422,11.4218953 L13.6781654,13.4635704 C13.1146583,12.7994312 12.2821245,12.424236 11.4113166,12.4419772 C10.6791798,12.4140263 9.96955562,12.6979858 9.45880425,13.2232844 C8.45689314,14.320006 8.45689314,15.9998517 9.45880425,17.0965733 C9.96955562,17.6218719 10.6791798,17.9058314 11.4113166,17.8778805 C12.2821245,17.8956218 13.1146583,17.5204265 13.6781654,16.8562874 L15.4644422,18.8979625 C14.9035551,19.4092663 14.2681087,19.8322178 13.5799353,20.1522854 C12.8951934,20.4475162 12.1553618,20.5933187 11.4098054,20.5799642 C9.67793296,20.5799642 8.26744929,20.0520404 7.1783544,18.9961926 C6.13732849,17.9914348 5.54933882,16.6067437 5.54933882,15.1599289 C5.54933882,13.7131141 6.13732849,12.3284229 7.1783544,11.3236652 L7.1783544,11.3236652 Z" id="Path" fill="#FFFFFF"></path>
                        </g>
                    </g>
                </g>
            </g>
        </g>
    </g>
</svg>